{
	"code": 200,
	"message": "操作成功",
	"pageNo": 1,
	"pageSize": 10,
	"totalCount": 2624,
	"totalPage": 263,
	"bodyData": [{
		"trainCoach": "Tc1",
		"lineName": "13",
		"trainType": "13A03",
		"trainNo": "1330",
		"partCode": "40058",
		"partName": "空气制动缓解继电器1-BRR1-新",
		"lifeValue": 5000.0,
		"mileageValue": 1.0E7,
		"mileage": 12750,
		"aliveTime": 198,
		"serviceTime": 1563847541000,
		"moduleName": "车辆电路",
		"serviceValue": 273671,
		"qualityValue": 10000,
		"qualityUnit": "次",
		"precent": 0,
		"maxTime": 0,
		"minTime": 1546858952000
	}, {
		"trainCoach": "Tc1",
		"lineName": "13",
		"trainType": "13A03",
		"trainNo": "1330",
		"partCode": "40059",
		"partName": "空气制动缓解继电器2-BRR2-新",
		"lifeValue": 5000.0,
		"mileageValue": 1.0E7,
		"mileage": 12750,
		"aliveTime": 198,
		"serviceTime": 1563847541000,
		"moduleName": "车辆电路",
		"serviceValue": 302997,
		"qualityValue": 10000,
		"qualityUnit": "次",
		"precent": 0,
		"maxTime": 0,
		"minTime": 1546858952000
	}, {
		"trainCoach": "Mp1",
		"lineName": "13",
		"trainType": "13A03",
		"trainNo": "1330",
		"partCode": "40060",
		"partName": "空气制动缓解继电器1-BRR1-新",
		"lifeValue": 5000.0,
		"mileageValue": 1.0E7,
		"mileage": 12750,
		"aliveTime": 198,
		"serviceTime": 1563847541000,
		"moduleName": "车辆电路",
		"serviceValue": 40362,
		"qualityValue": 10000,
		"qualityUnit": "次",
		"precent": 0,
		"maxTime": 0,
		"minTime": 1546858952000
	}, {
		"trainCoach": "Mp1",
		"lineName": "13",
		"trainType": "13A03",
		"trainNo": "1330",
		"partCode": "40061",
		"partName": "空气制动缓解继电器2-BRR2-新",
		"lifeValue": 5000.0,
		"mileageValue": 1.0E7,
		"mileage": 12750,
		"aliveTime": 198,
		"serviceTime": 1563847541000,
		"moduleName": "车辆电路",
		"serviceValue": 41178,
		"qualityValue": 10000,
		"qualityUnit": "次",
		"precent": 0,
		"maxTime": 0,
		"minTime": 1546858952000
	}, {
		"trainCoach": "M1",
		"lineName": "13",
		"trainType": "13A03",
		"trainNo": "1330",
		"partCode": "40062",
		"partName": "空气制动缓解继电器1-BRR1-新",
		"lifeValue": 5000.0,
		"mileageValue": 1.0E7,
		"mileage": 12750,
		"aliveTime": 198,
		"serviceTime": 1563847541000,
		"moduleName": "车辆电路",
		"serviceValue": 42920,
		"qualityValue": 10000,
		"qualityUnit": "次",
		"precent": 0,
		"maxTime": 0,
		"minTime": 1546858952000
	}, {
		"trainCoach": "M1",
		"lineName": "13",
		"trainType": "13A03",
		"trainNo": "1330",
		"partCode": "40063",
		"partName": "空气制动缓解继电器2-BRR2-新",
		"lifeValue": 5000.0,
		"mileageValue": 1.0E7,
		"mileage": 12750,
		"aliveTime": 198,
		"serviceTime": 1563847541000,
		"moduleName": "车辆电路",
		"serviceValue": 40952,
		"qualityValue": 10000,
		"qualityUnit": "次",
		"precent": 0,
		"maxTime": 0,
		"minTime": 1546858952000
	}, {
		"trainCoach": "M2",
		"lineName": "13",
		"trainType": "13A03",
		"trainNo": "1330",
		"partCode": "40064",
		"partName": "空气制动缓解继电器1-BRR1-新",
		"lifeValue": 5000.0,
		"mileageValue": 1.0E7,
		"mileage": 12750,
		"aliveTime": 198,
		"serviceTime": 1563847541000,
		"moduleName": "车辆电路",
		"serviceValue": 41700,
		"qualityValue": 10000,
		"qualityUnit": "次",
		"precent": 0,
		"maxTime": 0,
		"minTime": 1546858952000
	}, {
		"trainCoach": "M2",
		"lineName": "13",
		"trainType": "13A03",
		"trainNo": "1330",
		"partCode": "40065",
		"partName": "空气制动缓解继电器2-BRR2-新",
		"lifeValue": 5000.0,
		"mileageValue": 1.0E7,
		"mileage": 12750,
		"aliveTime": 198,
		"serviceTime": 1563847541000,
		"moduleName": "车辆电路",
		"serviceValue": 41704,
		"qualityValue": 10000,
		"qualityUnit": "次",
		"precent": 0,
		"maxTime": 0,
		"minTime": 1546858952000
	}, {
		"trainCoach": "Mp2",
		"lineName": "13",
		"trainType": "13A03",
		"trainNo": "1330",
		"partCode": "40066",
		"partName": "空气制动缓解继电器1-BRR1-新",
		"lifeValue": 5000.0,
		"mileageValue": 1.0E7,
		"mileage": 12750,
		"aliveTime": 198,
		"serviceTime": 1563847541000,
		"moduleName": "车辆电路",
		"serviceValue": 41024,
		"qualityValue": 10000,
		"qualityUnit": "次",
		"precent": 0,
		"maxTime": 0,
		"minTime": 1546858952000
	}, {
		"trainCoach": "Mp2",
		"lineName": "13",
		"trainType": "13A03",
		"trainNo": "1330",
		"partCode": "40067",
		"partName": "空气制动缓解继电器2-BRR2-新",
		"lifeValue": 5000.0,
		"mileageValue": 1.0E7,
		"mileage": 12750,
		"aliveTime": 198,
		"serviceTime": 1563847541000,
		"moduleName": "车辆电路",
		"serviceValue": 41115,
		"qualityValue": 10000,
		"qualityUnit": "次",
		"precent": 0,
		"maxTime": 0,
		"minTime": 1546858952000
	}]
}