{
	"code": 200,
	"message": "操作成功",
	"pageNo": 1,
	"pageSize": 10,
	"totalCount": 11774,
	"totalPage": 1178,
	"bodyData": [{
		"standard_id": 1016041,
		"train_type": "13A03",
		"train_no": "1360",
		"train_coach": "Tc1",
		"module_name": "ATC",
		"version_content": "SW_Version(ATC1_SW_Version)",
		"version_standard": "0.0.0.0",
		"version_current": "0.0.0.0",
		"update_time": "2018-10-23 16:45:12",
		"status": "true",
		"line_name": "13"
	}, {
		"standard_id": 1017242,
		"train_type": "13A03",
		"train_no": "1353",
		"train_coach": "Tc1",
		"module_name": "ATC",
		"version_content": "SW_Version(ATC1_SW_Version)",
		"version_standard": "0.0.0.0",
		"version_current": "0.0.0.0",
		"update_time": "2018-10-23 16:50:07",
		"status": "true",
		"line_name": "13"
	}, {
		"standard_id": 1021897,
		"train_type": "13A03",
		"train_no": "1330",
		"train_coach": "Tc1",
		"module_name": "ATC",
		"version_content": "SW_Version(ATC1_SW_Version)",
		"version_standard": "0.0.0.0",
		"version_current": "0.0.0.0",
		"update_time": "2019-02-21 12:02:20",
		"status": "true",
		"line_name": "13"
	}, {
		"standard_id": 1022365,
		"train_type": "13A03",
		"train_no": "1328",
		"train_coach": "Tc1",
		"module_name": "ATC",
		"version_content": "SW_Version(ATC1_SW_Version)",
		"version_standard": "0.0.0.0",
		"version_current": "0.0.0.0",
		"update_time": "2019-02-21 12:23:22",
		"status": "true",
		"line_name": "13"
	}, {
		"standard_id": 1014647,
		"train_type": "13A03",
		"train_no": "1349",
		"train_coach": "Tc1",
		"module_name": "ATC",
		"version_content": "SW_Version(ATC1_SW_Version)",
		"version_standard": "0.0.0.0",
		"version_current": "0.0.0.0",
		"update_time": "2018-10-23 16:30:23",
		"status": "true",
		"line_name": "13"
	}, {
		"standard_id": 1021461,
		"train_type": "13A03",
		"train_no": "1345",
		"train_coach": "Tc1",
		"module_name": "ATC",
		"version_content": "SW_Version(ATC1_SW_Version)",
		"version_standard": "0.0.0.0",
		"version_current": "0.0.0.0",
		"update_time": "2018-11-03 09:46:43",
		"status": "true",
		"line_name": "13"
	}, {
		"standard_id": 1015018,
		"train_type": "13A03",
		"train_no": "1334",
		"train_coach": "Tc1",
		"module_name": "ATC",
		"version_content": "SW_Version(ATC1_SW_Version)",
		"version_standard": "0.0.0.0",
		"version_current": "0.0.0.0",
		"update_time": "2018-10-23 16:31:42",
		"status": "true",
		"line_name": "13"
	}, {
		"standard_id": 1008106,
		"train_type": "13A02",
		"train_no": "1329",
		"train_coach": "Tc1",
		"module_name": "ATC",
		"version_content": "SW_Version(ATC1_SW_Version)",
		"version_standard": "0.0.0.0",
		"version_current": "0.0.0.0",
		"update_time": "2018-07-16 10:48:57",
		"status": "true",
		"line_name": "13"
	}, {
		"standard_id": 1018897,
		"train_type": "13A03",
		"train_no": "1351",
		"train_coach": "Tc1",
		"module_name": "ATC",
		"version_content": "SW_Version(ATC1_SW_Version)",
		"version_standard": "0.0.0.0",
		"version_current": "0.0.0.0",
		"update_time": "2018-10-24 09:16:37",
		"status": "true",
		"line_name": "13"
	}, {
		"standard_id": 1020084,
		"train_type": "13A03",
		"train_no": "1356",
		"train_coach": "Tc1",
		"module_name": "ATC",
		"version_content": "SW_Version(ATC1_SW_Version)",
		"version_standard": "0.0.0.0",
		"version_current": "0.0.0.0",
		"update_time": "2018-10-28 10:25:29",
		"status": "true",
		"line_name": "13"
	}]
}