{
	"code": 200,
	"message": "操作成功",
	"bodyData": [{
		"identity": "CRRC1313A031350100131563897305000",
		"line_name": "13",
		"train_type": "13A03",
		"train_no": "1350",
		"fault_time": "2019-07-23 23:55:05",
		"end_time": "2019-07-24 05:24:45",
		"fault_group": 0,
		"fault_status": 1,
		"update_person": null,
		"fault_code": "10013",
		"fault_name": "车门警告",
		"fault_type": "HMI",
		"fault_type_group": "HMI",
		"fault_level": "1",
		"train_coach": "列车",
		"current_stationid": 24,
		"current_site": "下南路站",
		"terminate_stationid": 1,
		"terminate_site": "金运路"
	}, {
		"identity": "CRRC1313A03135014211563897305000",
		"line_name": "13",
		"train_type": "13A03",
		"train_no": "1350",
		"fault_time": "2019-07-23 23:55:05",
		"end_time": "2019-07-24 00:38:13",
		"fault_group": 0,
		"fault_status": 1,
		"update_person": null,
		"fault_code": "1421",
		"fault_name": "列车安全环路断开VCMe牵引封锁",
		"fault_type": "网络",
		"fault_type_group": "网络",
		"fault_level": "0",
		"train_coach": "列车",
		"current_stationid": 24,
		"current_site": "下南路站",
		"terminate_stationid": 1,
		"terminate_site": "金运路"
	}, {
		"identity": "CRRC1313A03135069001563897305000",
		"line_name": "13",
		"train_type": "13A03",
		"train_no": "1350",
		"fault_time": "2019-07-23 23:55:05",
		"end_time": "2019-07-23 23:57:58",
		"fault_group": 0,
		"fault_status": 1,
		"update_person": null,
		"fault_code": "6900",
		"fault_name": "总状态故障",
		"fault_type": "EVR",
		"fault_type_group": "黑匣子",
		"fault_level": "1",
		"train_coach": "列车",
		"current_stationid": 24,
		"current_site": "下南路站",
		"terminate_stationid": 1,
		"terminate_site": "金运路"
	}, {
		"identity": "CRRC1313A03135714211563897179000",
		"line_name": "13",
		"train_type": "13A03",
		"train_no": "1357",
		"fault_time": "2019-07-23 23:52:59",
		"end_time": "",
		"fault_group": 0,
		"fault_status": 0,
		"update_person": null,
		"fault_code": "1421",
		"fault_name": "列车安全环路断开VCMe牵引封锁",
		"fault_type": "网络",
		"fault_type_group": "网络",
		"fault_level": "0",
		"train_coach": "列车",
		"current_stationid": 31,
		"current_site": "张江路站",
		"terminate_stationid": 1,
		"terminate_site": "金运路"
	}, {
		"identity": "CRRC1313A03135770441563897171000",
		"line_name": "13",
		"train_type": "13A03",
		"train_no": "1357",
		"fault_time": "2019-07-23 23:52:51",
		"end_time": "2019-07-23 23:53:04",
		"fault_group": 0,
		"fault_status": 1,
		"update_person": null,
		"fault_code": "7044",
		"fault_name": "客室5DIDU1-A故障",
		"fault_type": "PIS",
		"fault_type_group": "PIS",
		"fault_level": "1",
		"train_coach": "Mp2",
		"current_stationid": 31,
		"current_site": "张江路站",
		"terminate_stationid": 1,
		"terminate_site": "金运路"
	}, {
		"identity": "CRRC1313A03135711171563897131000",
		"line_name": "13",
		"train_type": "13A03",
		"train_no": "1357",
		"fault_time": "2019-07-23 23:52:11",
		"end_time": "2019-07-23 23:52:48",
		"fault_group": 0,
		"fault_status": 1,
		"update_person": null,
		"fault_code": "1117",
		"fault_name": "Tc2车ATC通讯故障",
		"fault_type": "网络",
		"fault_type_group": "网络",
		"fault_level": "2",
		"train_coach": "Tc2",
		"current_stationid": 31,
		"current_site": "张江路站",
		"terminate_stationid": 1,
		"terminate_site": "金运路"
	}, {
		"identity": "CRRC1313A03135710221563897131000",
		"line_name": "13",
		"train_type": "13A03",
		"train_no": "1357",
		"fault_time": "2019-07-23 23:52:11",
		"end_time": "2019-07-23 23:52:48",
		"fault_group": 0,
		"fault_status": 1,
		"update_person": null,
		"fault_code": "1022",
		"fault_name": "Tc1车ATC通讯故障",
		"fault_type": "网络",
		"fault_type_group": "网络",
		"fault_level": "2",
		"train_coach": "Tc1",
		"current_stationid": 31,
		"current_site": "张江路站",
		"terminate_stationid": 1,
		"terminate_site": "金运路"
	}, {
		"identity": "CRRC1313A03135711171563897098000",
		"line_name": "13",
		"train_type": "13A03",
		"train_no": "1357",
		"fault_time": "2019-07-23 23:51:38",
		"end_time": "2019-07-23 23:52:10",
		"fault_group": 0,
		"fault_status": 1,
		"update_person": null,
		"fault_code": "1117",
		"fault_name": "Tc2车ATC通讯故障",
		"fault_type": "网络",
		"fault_type_group": "网络",
		"fault_level": "2",
		"train_coach": "Tc2",
		"current_stationid": 31,
		"current_site": "张江路站",
		"terminate_stationid": 1,
		"terminate_site": "金运路"
	}, {
		"identity": "CRRC1313A03135710221563897098000",
		"line_name": "13",
		"train_type": "13A03",
		"train_no": "1357",
		"fault_time": "2019-07-23 23:51:38",
		"end_time": "2019-07-23 23:52:10",
		"fault_group": 0,
		"fault_status": 1,
		"update_person": null,
		"fault_code": "1022",
		"fault_name": "Tc1车ATC通讯故障",
		"fault_type": "网络",
		"fault_type_group": "网络",
		"fault_level": "2",
		"train_coach": "Tc1",
		"current_stationid": 31,
		"current_site": "张江路站",
		"terminate_stationid": 1,
		"terminate_site": "金运路"
	}, {
		"identity": "CRRC1313A031350100171563896774000",
		"line_name": "13",
		"train_type": "13A03",
		"train_no": "1350",
		"fault_time": "2019-07-23 23:46:14",
		"end_time": "2019-07-23 23:48:13",
		"fault_group": 0,
		"fault_status": 1,
		"update_person": null,
		"fault_code": "10017",
		"fault_name": "左侧开门允许旁路",
		"fault_type": "HMI",
		"fault_type_group": "HMI",
		"fault_level": "1",
		"train_coach": "列车",
		"current_stationid": 24,
		"current_site": "下南路站",
		"terminate_stationid": 1,
		"terminate_site": "金运路"
	}],
	"pageNo": 1,
	"pageSize": 10,
	"totalCount": 2115,
	"totalPage": 212
}